%YAML 1.1
%TAG !u! tag:unity3d.com,2011:
--- !u!114 &11400000
MonoBehaviour:
  m_ObjectHideFlags: 0
  m_CorrespondingSourceObject: {fileID: 0}
  m_PrefabInstance: {fileID: 0}
  m_PrefabAsset: {fileID: 0}
  m_GameObject: {fileID: 0}
  m_Enabled: 1
  m_EditorHideFlags: 0
  m_Script: {fileID: 11500000, guid: 571a01466b20bad4f8062d4e1801cd9a, type: 3}
  m_Name: Ingredient 29
  m_EditorClassIdentifier: 
  iconIngredient: {fileID: 21300000, guid: d8fe9e597ead6d544b15fd3ee62c17d7, type: 3}
  priceUpgrade: 200
